{
  "spec": "http://kumori.cloud/manifest/deployment/1_0_0",
  "servicename": "eslap://kumori.systems/services/demo-videostreaming/1_0_0",
  "name": "eslap://kumori.systems/deployments/demo-videostreaming",
  "roles": {
    "frontend": {
      "instances": 1,
      "maxinstances": 1,
      "resilience": 1,
      "bandwidth": "50M",
      "containers": {
        "frontend": {
          "cpu": "250m",
          "memory": "250Mi",
          "ioperf": "1",
          "iopsintensive": false
        }
      },
      "parameters": {
        "bind_address": "127.0.0.1"
      }
    },
    "worker-sintel": {
      "instances": 1,
      "maxinstances": 5,
      "resilience": 1,
      "bandwidth": "5M",
      "containers": {
        "worker": {
          "cpu": "50m",
          "memory": "150Mi",
          "ioperf": "1",
          "iopsintensive": false
        }
      },
      "parameters": {
        "bind_address": "127.0.0.1"
      }
    },
    "worker-bbb": {
      "instances": 1,
      "maxinstances": 5,
      "resilience": 1,
      "bandwidth": "5M",
      "containers": {
        "worker": {
          "cpu": "50m",
          "memory": "150Mi",
          "ioperf": "1",
          "iopsintensive": false
        }
      },
      "parameters": {
        "bind_address": "127.0.0.1"
      }
    },
    "worker-caminandes": {
      "instances": 1,
      "maxinstances": 5,
      "resilience": 1,
      "bandwidth": "5M",
      "containers": {
        "worker": {
          "cpu": "50m",
          "memory": "150Mi",
          "ioperf": "1",
          "iopsintensive": false
        }
      },
      "parameters": {
        "bind_address": "127.0.0.1"
      }
    }
  },
  "sla": {}
}
